<?xml version="1.0" encoding="utf-8"?>
<!-- Svg Vector Icons : http://www.sfont.cn -->
<!DOCTYPE svg PUBLIC "-//W3C//DTD SVG 1.1//EN" "http://www.w3.org/Graphics/SVG/1.1/DTD/svg11.dtd">
<svg version="1.1" xmlns="http://www.w3.org/2000/svg" xmlns:xlink="http://www.w3.org/1999/xlink" x="0px" y="0px" viewBox="0 0 1000 1000" enable-background="new 0 0 1000 1000" xml:space="preserve">
<metadata> Svg Vector Icons : http://www.sfont.cn </metadata>
<g><path d="M883.3,150H116.6C57.8,150,10,197.5,10,256v488c0,58.4,47.8,106,106.6,106h766.7c58.8,0,106.7-47.5,106.7-106V256C990,197.5,942.2,150,883.3,150L883.3,150z M933.9,744c0,27.7-22.7,50.2-50.5,50.2H116.6c-27.8,0-50.5-22.5-50.5-50.2V256c0-27.7,22.7-50.2,50.5-50.2h766.7c27.9,0,50.5,22.5,50.5,50.2V744L933.9,744z M831.5,321.2H613c-10.8,0-19.5,12.4-19.5,27.9c0,15.4,8.7,27.9,19.5,27.9h218.5c10.8,0,19.5-12.5,19.5-27.9C851,333.7,842.3,321.2,831.5,321.2L831.5,321.2z M831.5,463.4H613c-10.8,0-19.5,12.5-19.5,27.9s8.7,27.9,19.5,27.9h218.5c10.8,0,19.5-12.5,19.5-27.9S842.3,463.4,831.5,463.4L831.5,463.4z M831.5,605.5H647.1c-10.8,0-19.5,12.5-19.5,27.9c0,15.4,8.7,27.9,19.5,27.9h184.4c10.8,0,19.5-12.5,19.5-27.9C851,617.9,842.3,605.5,831.5,605.5L831.5,605.5z M415,538c31-25.6,50.8-64.2,50.8-107.3c0-77-63.1-139.6-140.5-139.6c-77.5,0-140.6,62.6-140.6,139.6c0,43.1,19.8,81.7,50.8,107.3c-54.8,24.9-98,72.2-117,132.7c-4.4,14.2,3.5,29.2,17.8,33.6c14.4,4.4,29.4-3.5,33.9-17.7c21.4-68.4,83.7-114.3,155.1-114.3c71.4,0,133.7,45.9,155.1,114.3c3.6,11.5,14.3,18.9,25.8,18.9c2.6,0,5.3-0.4,8-1.2c14.3-4.4,22.2-19.5,17.8-33.6C513,610.1,469.9,562.8,415,538L415,538z M325.3,344.8c47.7,0,86.5,38.5,86.5,85.9c0,47.4-38.8,85.9-86.5,85.9c-47.7,0-86.5-38.5-86.5-85.9C238.8,383.3,277.6,344.8,325.3,344.8L325.3,344.8z"/></g>
</svg>